Diseños Experimentales
…
Practica

Importación de base de datos 1_Datos ejer Cap1.xlsx

library(readxl)
datadca <- read_excel("1_Datos ejer Cap1.xlsx",
                      sheet = "Eje1")
datadca

# A tibble: 25 × 2
   Cultivar   Nem
   <chr>    <dbl>
 1 Huia       170
 2 Huia       210
 3 Huia       205
 4 Huia       220
 5 Huia       210
 6 Kopu       200
 7 Kopu       205
 8 Kopu       210
 9 Kopu       195
10 Kopu       215
# ℹ 15 more rows
…
